R and databases
…
- *values_from*: columna desde la cual extraer los valores

---

background-image: url("imagenes/fondo2.PNG")
background-size: contain;
background-position: 100% 0%

# Tidy data

En algunos casos, no contamos con una variable que contenga texto, para hacer el "pivoteo"

```
## # A tibble: 32 × 3
## # Groups:   region [16]
##    region  sexo     n
##     <dbl> <dbl> <int>
##  1      1     1  1187
##  2      1     2  1288
##  3      2     1  1536
##  4      2     2  1601
##  5      3     1  1409
##  6      3     2  1524
##  7      4     1  2481
##  8      4     2  2679
##  9      5     1  5296
## 10      5     2  5829
## # ℹ 22 more rows
```
…
